<?xml version="1.0" encoding="UTF-8"?>
<session version="1.0">
<refactoring comment="Move element &apos;JwtAuthResponse.java&apos; to &apos;TiffinProject/src/main/java/com.tiffin.dtos&apos;&#x0D;&#x0A;- Original project: &apos;TiffinProject&apos;&#x0D;&#x0A;- Destination element: &apos;TiffinProject/src/main/java/com.tiffin.dtos&apos;&#x0D;&#x0A;- Original element: &apos;com.tiffin.security.JwtAuthResponse.java&apos;&#x0D;&#x0A;- Update references to refactored element" description="Move compilation unit" destination="/src\/main\/java=/optional=/true=/=/maven.pomderived=/true=/&lt;com.tiffin.dtos" element1="/src\/main\/java=/optional=/true=/=/maven.pomderived=/true=/&lt;com.tiffin.security{JwtAuthResponse.java" files="0" flags="589830" folders="0" id="org.eclipse.jdt.ui.move" patterns="*" policy="org.eclipse.jdt.ui.moveResources" qualified="false" references="true" stamp="1680514648318" units="1" version="1.0"/>
</session>